<?xml version="1.0" encoding="utf-8"?>
<!-- Generator: Adobe Illustrator 21.0.0, SVG Export Plug-In . SVG Version: 6.00 Build 0)  -->
<svg version="1.1" id="Layer_1" xmlns="http://www.w3.org/2000/svg" xmlns:xlink="http://www.w3.org/1999/xlink" x="0px" y="0px"
	 width="22.3px" height="22.8px" viewBox="0 0 22.3 22.8" style="enable-background:new 0 0 22.3 22.8;" xml:space="preserve">
<path style="fill: #F3BB41;" d="M21.3,5.1c-2.1-2.8-4.1-2.2-6-1.5c-0.8,0.3-1.7,0.6-2.6,0.6c-0.6,0-1.1-0.1-1.7-0.3c0-0.3,0.1-0.6,0.1-0.9c0-1.7-1.4-3-3-3
	c-1.1,0-2,0.5-2.5,1.4C5.1,0.5,4.1,0,3,0C1.4,0,0,1.4,0,3c0,2.7,1.9,4.5,3.4,5.6c0.1,1.1,0.5,2.2,0.9,3.2c0.3,0.9,0.6,1.7,0.6,2.4
	c0,3.2,0.7,8.6,3.2,8.6c1.7,0,2.2-1.9,2.7-3.8c0.5-2,1-3.3,2.1-3.3c1,0,1.4,1.1,1.8,3c0.4,1.9,0.9,4,3,4c3,0,3.2-7.2,3.2-8.6
	c0-0.6,0.3-1.5,0.6-2.3C22.1,9.8,23,7.3,21.3,5.1z M0.8,3c0-1.2,1-2.2,2.2-2.2c1,0,1.9,0.7,2.2,1.7c0,0.2,0.2,0.3,0.4,0.3
	C5.8,2.8,6,2.7,6,2.5c0.2-1,1.1-1.7,2.2-1.7c1.2,0,2.2,1,2.2,2.2c0,3.6-3.9,5.6-4.7,6C4.8,8.6,0.8,6.5,0.8,3z M20.6,11.6
	c-0.3,1-0.7,1.9-0.7,2.6c0,3.8-0.7,7.8-2.4,7.8c-1.3,0-1.8-1.3-2.2-3.4c-0.4-1.8-0.8-3.6-2.6-3.6c-1.8,0-2.3,2.1-2.8,3.9
	C9.5,20.7,9.1,22,8.1,22c-1.5,0-2.4-4-2.4-7.8c0-0.8-0.3-1.7-0.7-2.6C4.8,10.8,4.5,10,4.3,9.2c0.6,0.4,1.1,0.6,1.1,0.6
	c0,0,0.1,0,0.2,0s0.1,0,0.2,0C6,9.7,9.9,8,10.9,4.6c0.6,0.2,1.2,0.3,1.8,0.3c1,0,2-0.3,2.9-0.6c1.9-0.6,3.3-1.1,5.1,1.2
	C22.1,7.4,21.3,9.6,20.6,11.6z"/>
</svg>
