<?xml version="1.0" encoding="utf-8"?>
<!-- Generator: Adobe Illustrator 21.0.0, SVG Export Plug-In . SVG Version: 6.00 Build 0)  -->
<svg version="1.1" id="Layer_1" xmlns="http://www.w3.org/2000/svg" xmlns:xlink="http://www.w3.org/1999/xlink" x="0px" y="0px"
	 width="512px" height="259.6px" viewBox="0 0 512 259.6" style="enable-background:new 0 0 512 259.6;" xml:space="preserve">
<g>
	<g>
		<path style="fill: #F3BB41;" d="M446,0h-40.4c-4.1,0-7.5,3.4-7.5,7.5c0,4.1,3.4,7.5,7.5,7.5H446c28.1,0,51,22.9,51,51v44.4c0,15.3-6.7,29.4-18.1,39
			c-8.7-89.5-117-109.1-150.8-28.1c-28.1-67.7-115.1-69.1-144,0.5C150,39.2,41.8,60.8,33.1,149.4c-11.4-9.6-18.1-23.6-18.1-39V66
			c0-28.1,22.9-51,51-51h313.8c4.1,0,7.5-3.4,7.5-7.5S384,0,379.9,0H66C29.6,0,0,29.6,0,66v44.4c0,23.7,12.4,45.1,32.6,56.9v13.8h-4
			c-4.1,0-7.5,3.4-7.5,7.5s3.4,7.5,7.5,7.5h4v18.3c0,24.7,21.1,44.9,47,44.9h34.9c4.1,0,7.5-3.4,7.5-7.5s-3.4-7.5-7.5-7.5H79.6
			c-17.6,0-32-13.4-32-29.9v-18.3h41.5c7.2,21.9,38.3,21.9,45.5,0h41.7v18.3c0,16.5-14.4,29.9-32,29.9h-3.9c-4.1,0-7.5,3.4-7.5,7.5
			s3.4,7.5,7.5,7.5h3.9c16.7,0,31.3-8.3,39.7-20.9c8.3,12.5,23,20.9,39.7,20.9h64.8c16.6,0,31.1-8.2,39.5-20.6
			c8.4,12.4,22.9,20.6,39.5,20.6h64.8c25.9,0,47-20.1,47-44.9v-18.3h4.2c4.1,0,7.5-3.4,7.5-7.5s-3.4-7.5-7.5-7.5h-4.2v-13.8
			c20.2-11.8,32.6-33.2,32.6-56.9V66C512,29.6,482.4,0,446,0z M111.9,197.6c-4.4,0-8.1-3.2-8.8-7.4c0.2-1,0.2-2.1,0-3.1
			c0.7-4.2,4.4-7.4,8.8-7.4c4.9,0,9,4,9,9S116.8,197.6,111.9,197.6z M176.4,181.1h-41.7c-7.2-21.9-38.3-21.9-45.5,0H47.6
			c0-13,0-8.9,0-22c0-41,28.9-74.4,64.4-74.4s64.4,33.4,64.4,74.4C176.4,167.6,176.4,172.9,176.4,181.1z M320.6,214.4
			c0,16.5-14.4,29.9-32,29.9h-64.8c-17.6,0-32-13.4-32-29.9v-18.3h41.5c7.2,21.9,38.3,21.9,45.5,0h41.8L320.6,214.4L320.6,214.4z
			 M247,188.6c0-4.9,4-9,9-9c4.9,0,9,4,9,9c0,4.9-4,9-9,9C251.1,197.6,247,193.6,247,188.6z M320.6,181.1h-41.8
			c-7.2-21.9-38.3-21.9-45.5,0h-41.5c0-8.2,0-13.5,0-22c0-41,28.9-74.4,64.4-74.4s64.4,33.4,64.4,74.4V181.1z M464.4,214.4
			c0,16.5-14.4,29.9-32,29.9h-64.8c-17.6,0-32-13.4-32-29.9v-18.3c0.6,0,41,0,41.6,0c7.2,21.9,38.3,22,45.5,0h41.6L464.4,214.4
			L464.4,214.4z M391,188.6c0-4.9,4-9,9-9c4.9,0,9,4,9,9s-4,9-9,9S391,193.6,391,188.6z M464.4,181.1h-41.6l0,0
			c-7.2-21.9-38.3-21.9-45.5,0c-0.6-0.1-41,0-41.6,0v-22c0-41,28.9-74.4,64.4-74.4c32.3,0,64.4,28.3,64.4,78.1L464.4,181.1
			L464.4,181.1z"/>
	</g>
</g>
</svg>
