<?xml version="1.0" encoding="utf-8"?>
<!-- Generator: Adobe Illustrator 21.0.0, SVG Export Plug-In . SVG Version: 6.00 Build 0)  -->
<svg version="1.1" id="Capa_1" xmlns="http://www.w3.org/2000/svg" xmlns:xlink="http://www.w3.org/1999/xlink" x="0px" y="0px"
	 width="60px" height="42.3px" viewBox="0 0 60 42.3" style="enable-background:new 0 0 60 42.3;" xml:space="preserve">
<path style="fill: #57B2A8;" d="M49.9,0H10.1C4.5,0,0,4.5,0,10.1v7.6c0,3,2.4,5.4,5.4,5.4h0.9C5.6,28,5.1,33.5,5,37c-0.1,4.4,5.4,4.8,9.4,5.1l0.8,0.1
	c1.2,0.1,2.1,0.1,3.1,0.1c0.9,0,1.8,0,3-0.2c0.5,0,1-0.1,1.6-0.1c2.6-0.2,5.6-0.4,7.1-2.1c1.5,1.7,4.5,1.9,7.1,2.1
	c0.5,0,1.1,0.1,1.6,0.1c1.2,0.1,2.1,0.2,3,0.2c0.9,0,1.9-0.1,3.1-0.1l0.8-0.1c4-0.3,9.6-0.7,9.4-5.1c-0.1-3.5-0.6-9-1.3-14h0.9
	c3,0,5.4-2.4,5.4-5.4v-7.6C60,4.5,55.5,0,49.9,0z M22.8,40c-0.5,0-1.1,0.1-1.6,0.1c-2.3,0.2-3.5,0.2-5.8,0l-0.8-0.1
	c-4.3-0.3-7.7-0.7-7.6-3c0.2-5.6,1.4-16.6,2.6-21.8c1.1-4.6,4.7-5.2,8.4-5.2c6.6,0,7.8,0.2,9.4,6.4C28.8,21.8,29,33.5,29,37
	C29,39.4,26.7,39.7,22.8,40z M45.4,40.1l-0.8,0.1c-2.3,0.2-3.5,0.2-5.8,0c-0.5,0-1.1-0.1-1.6-0.1c-3.9-0.3-6.3-0.6-6.2-3
	c0-3.5,0.2-15.2,1.6-20.6c1.6-6.3,2.8-6.4,9.4-6.4c3.7,0,7.3,0.6,8.4,5.2c1.2,5.2,2.4,16.2,2.6,21.8C53.1,39.3,49.8,39.8,45.4,40.1z
	 M58,17.6c0,1.9-1.5,3.4-3.4,3.4h-1c-0.4-2.1-0.8-4.3-1.3-6.2C50.9,8.7,45.7,8,42,8c-7,0-9.3,0.4-11.3,7.9c-0.3,1-0.5,2-0.7,3.1
	c-0.2-1.1-0.4-2.2-0.7-3.1C27.3,8.4,25,8,18,8c-3.7,0-8.9,0.7-10.3,6.8c-0.5,2-0.9,4.1-1.3,6.2h-1C3.5,21,2,19.5,2,17.6v-7.6
	C2,5.6,5.6,2,10.1,2h39.9c4.4,0,8.1,3.6,8.1,8.1V17.6z"/>
</svg>
